{
    "page": 1,
    "per_page": 8,
    "photos": [
        {
            "id": 954929,
            "width": 2480,
            "height": 3508,
            "url": "https://www.pexels.com/photo/waterfalls-during-sunset-954929/",
            "photographer": "Sachin C Nair",
            "photographer_url": "https://www.pexels.com/@sachin-c-nair-236689",
            "photographer_id": 236689,
            "avg_color": "#7F6A53",
            "src": {
                "original": "https://images.pexels.com/photos/954929/pexels-photo-954929.jpeg",
                "large2x": "https://images.pexels.com/photos/954929/pexels-photo-954929.jpeg?auto=compress&cs=tinysrgb&dpr=2&h=650&w=940",
                "large": "https://images.pexels.com/photos/954929/pexels-photo-954929.jpeg?auto=compress&cs=tinysrgb&h=650&w=940",
                "medium": "https://images.pexels.com/photos/954929/pexels-photo-954929.jpeg?auto=compress&cs=tinysrgb&h=350",
                "small": "https://images.pexels.com/photos/954929/pexels-photo-954929.jpeg?auto=compress&cs=tinysrgb&h=130",
                "portrait": "https://images.pexels.com/photos/954929/pexels-photo-954929.jpeg?auto=compress&cs=tinysrgb&fit=crop&h=1200&w=800",
                "landscape": "https://images.pexels.com/photos/954929/pexels-photo-954929.jpeg?auto=compress&cs=tinysrgb&fit=crop&h=627&w=1200",
                "tiny": "https://images.pexels.com/photos/954929/pexels-photo-954929.jpeg?auto=compress&cs=tinysrgb&dpr=1&fit=crop&h=200&w=280"
            },
            "liked": false,
            "alt": "Waterfalls during Sunset"
        },
        {
            "id": 671549,
            "width": 3456,
            "height": 5184,
            "url": "https://www.pexels.com/photo/force-perspective-photography-of-hand-and-sun-671549/",
            "photographer": "Lukas Rychvalsky",
            "photographer_url": "https://www.pexels.com/@lukas-rychvalsky",
            "photographer_id": 130611,
            "avg_color": "#757978",
            "src": {
                "original": "https://images.pexels.com/photos/671549/pexels-photo-671549.jpeg",
                "large2x": "https://images.pexels.com/photos/671549/pexels-photo-671549.jpeg?auto=compress&cs=tinysrgb&dpr=2&h=650&w=940",
                "large": "https://images.pexels.com/photos/671549/pexels-photo-671549.jpeg?auto=compress&cs=tinysrgb&h=650&w=940",
                "medium": "https://images.pexels.com/photos/671549/pexels-photo-671549.jpeg?auto=compress&cs=tinysrgb&h=350",
                "small": "https://images.pexels.com/photos/671549/pexels-photo-671549.jpeg?auto=compress&cs=tinysrgb&h=130",
                "portrait": "https://images.pexels.com/photos/671549/pexels-photo-671549.jpeg?auto=compress&cs=tinysrgb&fit=crop&h=1200&w=800",
                "landscape": "https://images.pexels.com/photos/671549/pexels-photo-671549.jpeg?auto=compress&cs=tinysrgb&fit=crop&h=627&w=1200",
                "tiny": "https://images.pexels.com/photos/671549/pexels-photo-671549.jpeg?auto=compress&cs=tinysrgb&dpr=1&fit=crop&h=200&w=280"
            },
            "liked": false,
            "alt": "Force Perspective Photography of Hand and Sun"
        },
        {
            "id": 1353126,
            "width": 3270,
            "height": 4411,
            "url": "https://www.pexels.com/photo/purple-flowers-in-bloom-1353126/",
            "photographer": "Simon Berger",
            "photographer_url": "https://www.pexels.com/@8moments",
            "photographer_id": 181980,
            "avg_color": "#87593D",
            "src": {
                "original": "https://images.pexels.com/photos/1353126/pexels-photo-1353126.jpeg",
                "large2x": "https://images.pexels.com/photos/1353126/pexels-photo-1353126.jpeg?auto=compress&cs=tinysrgb&dpr=2&h=650&w=940",
                "large": "https://images.pexels.com/photos/1353126/pexels-photo-1353126.jpeg?auto=compress&cs=tinysrgb&h=650&w=940",
                "medium": "https://images.pexels.com/photos/1353126/pexels-photo-1353126.jpeg?auto=compress&cs=tinysrgb&h=350",
                "small": "https://images.pexels.com/photos/1353126/pexels-photo-1353126.jpeg?auto=compress&cs=tinysrgb&h=130",
                "portrait": "https://images.pexels.com/photos/1353126/pexels-photo-1353126.jpeg?auto=compress&cs=tinysrgb&fit=crop&h=1200&w=800",
                "landscape": "https://images.pexels.com/photos/1353126/pexels-photo-1353126.jpeg?auto=compress&cs=tinysrgb&fit=crop&h=627&w=1200",
                "tiny": "https://images.pexels.com/photos/1353126/pexels-photo-1353126.jpeg?auto=compress&cs=tinysrgb&dpr=1&fit=crop&h=200&w=280"
            },
            "liked": false,
            "alt": "Purple Flowers in Bloom"
        },
        {
            "id": 1168744,
            "width": 3126,
            "height": 4392,
            "url": "https://www.pexels.com/photo/silhouette-of-woman-near-cliff-1168744/",
            "photographer": "Jacub Gomez",
            "photographer_url": "https://www.pexels.com/@jacub-gomez-447561",
            "photographer_id": 447561,
            "avg_color": "#CDAB8E",
            "src": {
                "original": "https://images.pexels.com/photos/1168744/pexels-photo-1168744.jpeg",
                "large2x": "https://images.pexels.com/photos/1168744/pexels-photo-1168744.jpeg?auto=compress&cs=tinysrgb&dpr=2&h=650&w=940",
                "large": "https://images.pexels.com/photos/1168744/pexels-photo-1168744.jpeg?auto=compress&cs=tinysrgb&h=650&w=940",
                "medium": "https://images.pexels.com/photos/1168744/pexels-photo-1168744.jpeg?auto=compress&cs=tinysrgb&h=350",
                "small": "https://images.pexels.com/photos/1168744/pexels-photo-1168744.jpeg?auto=compress&cs=tinysrgb&h=130",
                "portrait": "https://images.pexels.com/photos/1168744/pexels-photo-1168744.jpeg?auto=compress&cs=tinysrgb&fit=crop&h=1200&w=800",
                "landscape": "https://images.pexels.com/photos/1168744/pexels-photo-1168744.jpeg?auto=compress&cs=tinysrgb&fit=crop&h=627&w=1200",
                "tiny": "https://images.pexels.com/photos/1168744/pexels-photo-1168744.jpeg?auto=compress&cs=tinysrgb&dpr=1&fit=crop&h=200&w=280"
            },
            "liked": false,
            "alt": "Silhouette of Woman Near Cliff"
        },
        {
            "id": 5256720,
            "width": 3929,
            "height": 5893,
            "url": "https://www.pexels.com/photo/african-american-woman-carrying-dog-under-sunlight-5256720/",
            "photographer": "Samson Katt",
            "photographer_url": "https://www.pexels.com/@samson-katt",
            "photographer_id": 3441178,
            "avg_color": "#948872",
            "src": {
                "original": "https://images.pexels.com/photos/5256720/pexels-photo-5256720.jpeg",
                "large2x": "https://images.pexels.com/photos/5256720/pexels-photo-5256720.jpeg?auto=compress&cs=tinysrgb&dpr=2&h=650&w=940",
                "large": "https://images.pexels.com/photos/5256720/pexels-photo-5256720.jpeg?auto=compress&cs=tinysrgb&h=650&w=940",
                "medium": "https://images.pexels.com/photos/5256720/pexels-photo-5256720.jpeg?auto=compress&cs=tinysrgb&h=350",
                "small": "https://images.pexels.com/photos/5256720/pexels-photo-5256720.jpeg?auto=compress&cs=tinysrgb&h=130",
                "portrait": "https://images.pexels.com/photos/5256720/pexels-photo-5256720.jpeg?auto=compress&cs=tinysrgb&fit=crop&h=1200&w=800",
                "landscape": "https://images.pexels.com/photos/5256720/pexels-photo-5256720.jpeg?auto=compress&cs=tinysrgb&fit=crop&h=627&w=1200",
                "tiny": "https://images.pexels.com/photos/5256720/pexels-photo-5256720.jpeg?auto=compress&cs=tinysrgb&dpr=1&fit=crop&h=200&w=280"
            },
            "liked": false,
            "alt": "Back view of anonymous black female in domestic clothes embracing cute puppy while standing near window and enjoying sunny morning"
        },
        {
            "id": 1325061,
            "width": 3888,
            "height": 2592,
            "url": "https://www.pexels.com/photo/photography-of-monument-valley-arizona-1325061/",
            "photographer": "Matthias Cooper",
            "photographer_url": "https://www.pexels.com/@mattycphoto",
            "photographer_id": 181504,
            "avg_color": "#563831",
            "src": {
                "original": "https://images.pexels.com/photos/1325061/pexels-photo-1325061.jpeg",
                "large2x": "https://images.pexels.com/photos/1325061/pexels-photo-1325061.jpeg?auto=compress&cs=tinysrgb&dpr=2&h=650&w=940",
                "large": "https://images.pexels.com/photos/1325061/pexels-photo-1325061.jpeg?auto=compress&cs=tinysrgb&h=650&w=940",
                "medium": "https://images.pexels.com/photos/1325061/pexels-photo-1325061.jpeg?auto=compress&cs=tinysrgb&h=350",
                "small": "https://images.pexels.com/photos/1325061/pexels-photo-1325061.jpeg?auto=compress&cs=tinysrgb&h=130",
                "portrait": "https://images.pexels.com/photos/1325061/pexels-photo-1325061.jpeg?auto=compress&cs=tinysrgb&fit=crop&h=1200&w=800",
                "landscape": "https://images.pexels.com/photos/1325061/pexels-photo-1325061.jpeg?auto=compress&cs=tinysrgb&fit=crop&h=627&w=1200",
                "tiny": "https://images.pexels.com/photos/1325061/pexels-photo-1325061.jpeg?auto=compress&cs=tinysrgb&dpr=1&fit=crop&h=200&w=280"
            },
            "liked": false,
            "alt": "Photography of Monument Valley, Arizona"
        },
        {
            "id": 1335115,
            "width": 5760,
            "height": 3840,
            "url": "https://www.pexels.com/photo/silhouette-photo-of-mountains-1335115/",
            "photographer": "Konevi",
            "photographer_url": "https://www.pexels.com/@konevi",
            "photographer_id": 422505,
            "avg_color": "#6D4354",
            "src": {
                "original": "https://images.pexels.com/photos/1335115/pexels-photo-1335115.jpeg",
                "large2x": "https://images.pexels.com/photos/1335115/pexels-photo-1335115.jpeg?auto=compress&cs=tinysrgb&dpr=2&h=650&w=940",
                "large": "https://images.pexels.com/photos/1335115/pexels-photo-1335115.jpeg?auto=compress&cs=tinysrgb&h=650&w=940",
                "medium": "https://images.pexels.com/photos/1335115/pexels-photo-1335115.jpeg?auto=compress&cs=tinysrgb&h=350",
                "small": "https://images.pexels.com/photos/1335115/pexels-photo-1335115.jpeg?auto=compress&cs=tinysrgb&h=130",
                "portrait": "https://images.pexels.com/photos/1335115/pexels-photo-1335115.jpeg?auto=compress&cs=tinysrgb&fit=crop&h=1200&w=800",
                "landscape": "https://images.pexels.com/photos/1335115/pexels-photo-1335115.jpeg?auto=compress&cs=tinysrgb&fit=crop&h=627&w=1200",
                "tiny": "https://images.pexels.com/photos/1335115/pexels-photo-1335115.jpeg?auto=compress&cs=tinysrgb&dpr=1&fit=crop&h=200&w=280"
            },
            "liked": false,
            "alt": "Silhouette Photo Of Mountains "
        },
        {
            "id": 1475234,
            "width": 4708,
            "height": 4708,
            "url": "https://www.pexels.com/photo/white-wooden-door-1475234/",
            "photographer": "GEORGE DESIPRIS",
            "photographer_url": "https://www.pexels.com/@george-desipris",
            "photographer_id": 228078,
            "avg_color": "#2F2A25",
            "src": {
                "original": "https://images.pexels.com/photos/1475234/pexels-photo-1475234.jpeg",
                "large2x": "https://images.pexels.com/photos/1475234/pexels-photo-1475234.jpeg?auto=compress&cs=tinysrgb&dpr=2&h=650&w=940",
                "large": "https://images.pexels.com/photos/1475234/pexels-photo-1475234.jpeg?auto=compress&cs=tinysrgb&h=650&w=940",
                "medium": "https://images.pexels.com/photos/1475234/pexels-photo-1475234.jpeg?auto=compress&cs=tinysrgb&h=350",
                "small": "https://images.pexels.com/photos/1475234/pexels-photo-1475234.jpeg?auto=compress&cs=tinysrgb&h=130",
                "portrait": "https://images.pexels.com/photos/1475234/pexels-photo-1475234.jpeg?auto=compress&cs=tinysrgb&fit=crop&h=1200&w=800",
                "landscape": "https://images.pexels.com/photos/1475234/pexels-photo-1475234.jpeg?auto=compress&cs=tinysrgb&fit=crop&h=627&w=1200",
                "tiny": "https://images.pexels.com/photos/1475234/pexels-photo-1475234.jpeg?auto=compress&cs=tinysrgb&dpr=1&fit=crop&h=200&w=280"
            },
            "liked": false,
            "alt": "White Wooden Door"
        }
    ],
    "total_results": 8000,
    "next_page": "https://api.pexels.com/v1/search/?page=2&per_page=8&query=sun"
}